hw_04_Yerim_Oh
…
def get_day_in_month(date):
    """The day in the month for a given date.
    
    >>> get_day_in_month(315)
    15
    """
    return date % 100

DAYS_IN_MONTHS = Table().with_columns(
    "Month", np.arange(1, 12+1),
    "Days in Month", make_array(31, 28, 31, 30, 31, 30, 31, 31, 30, 31, 30, 31))

# A table with one row for each month.  For each month, we have
# the number of the month (e.g. 3 for March), the number of
# days in that month in 2015 (e.g. 31 for March), and the
# number of days in the year before the first day of that month
# (e.g. 0 for January or 59 for March).
DAYS_SINCE_YEAR_START = DAYS_IN_MONTHS.with_column(
    "Days since start of year", np.cumsum(DAYS_IN_MONTHS.column("Days in Month")) - DAYS_IN_MONTHS.column("Days in Month"))

def days_since_year_start(month):
    """The number of days in the year before this month starts.
    
    month should be the number of a month, like 3 for March.
    
    >>> days_since_year_start(3)
    59
    """
    return DAYS_SINCE_YEAR_START.where("Month", are.equal_to(month))\
                                .column("Days since start of year")\
                                .item(0)

# First, extract the month and day for each reading.
with_month_and_day = temperatures.with_columns(
    "Month", temperatures.apply(get_month, "Date"),
    "Day in month", temperatures.apply(get_day_in_month, "Date"))
# Compute the days-since-year-start for each month and day.
fixed_dates = with_month_and_day.apply(days_since_year_start, "Month") + with_month_and_day.column("Day in month")
# Add those to the table.
with_dates_fixed = with_month_and_day.with_column("Days since start of year", fixed_dates).drop("Month", "Day in month")
with_dates_fixed

    Out[28]:

            Temperature Date Latitude Longitude Station name Days since start of year

            67          1013 40.9781  -124.109  Arcata/Eureka 286                     

            63          811  38.3208  -123.075  Bodega        223                     

            94          706  39.1019  -121.568  Marysville    187                     

            59          1211 36.9358  -121.789  Watsonville   345                     

            111         620  32.8342  -115.579  Imperial      171                     

            88          821  33.9     -117.25   Riverside     233                     

            68          606  33.938   -118.389  Los Angeles   157                     

            66          205  37.2847  -120.513  Merced        36                      

            89          902  39.49    -121.618  Oroville      245                     

            105         728  34.8536  -116.786  Daggett       209                     

... (990 rows omitted)
…
